,Foliated,,,Defoliated
Specimen,K,b,Rsq,K,b,Rsq,bfol_min,bfol_max,bdefol_min,bdefol_max
A1,4.30e-02,-0.678,0.9998,2.52e-02,-0.775,0.9968,-0.685,-0.678,-0.775,-0.442
A2,4.32e-02,-0.811,0.9991,NaN,NaN,NaN,-0.811,-0.720,NaN,NaN
A3,NaN,-0.760,0.9995,NaN,-0.502,0.9967,-0.760,-0.715,-0.502,-0.502
A4,3.05e-02,-0.774,0.9995,2.83e-02,-0.561,0.9978,-0.774,-0.678,-0.561,-0.353
A5,5.42e-02,-0.613,0.9996,4.87e-02,-0.454,0.9995,-0.621,-0.613,-0.454,-0.359

P1,NaN,-1.001,0.9720,NaN,NaN,NaN,-1.001,-0.295,NaN,NaN
P2,NaN,-0.822,0.9920,NaN,NaN,NaN,-0.822,-0.506,NaN,NaN
P2B1,NaN,-0.734,0.9980,NaN,-0.737,0.9966,-0.734,-0.556,-0.737,-0.480
P2B2,1.92e-02,-0.692,0.9932,1.60e-02,-0.653,0.9926,-0.692,-0.353,-0.653,-0.312
P3,2.20e-02,-0.726,0.9970,1.55e-02,-0.762,0.9946,-0.726,-0.517,-0.762,-0.455
P4,NaN,-0.891,0.9979,NaN,NaN,NaN,-0.891,-0.592,NaN,NaN
P4B1,2.60e-02,-0.856,0.9971,2.08e-02,-0.824,0.9958,-0.856,-0.500,-0.824,-0.405
P4B2,NaN,-0.880,0.9960,NaN,-0.911,0.9798,-0.880,-0.714,-0.911,-0.494

S1,NaN,-0.798,0.9975,NaN,-0.867,0.9963,-0.798,-0.422,-0.867,-0.561
S2,4.24e-02,-0.795,0.9978,2.82e-02,-0.856,0.9976,-0.795,-0.449,-0.856,-0.609
S3,2.06e-01,-0.503,0.9982,8.54e-02,-0.830,0.9971,-0.503,-0.503,-0.830,-0.572
S4,NaN,-0.798,0.9990,NaN,-0.780,0.9977,-0.798,-0.722,-0.780,-0.588
S5,NaN,-0.957,0.9976,NaN,NaN,NaN,-0.957,-0.926,NaN,NaN
S5B1,4.45e-02,-0.868,0.9995,3.14e-02,-0.891,0.9939,-0.868,-0.856,-0.891,-0.586
S5B2,2.64e-02,-0.922,0.9994,1.21e-02,-0.894,0.9995,-0.922,-0.917,-0.894,-0.843
S6,NaN,-0.856,0.9996,NaN,NaN,NaN,-0.856,-0.836,NaN,NaN
S6B1,5.90e-02,-0.851,0.9989,4.04e-02,-0.806,0.9988,-0.851,-0.768,-0.806,-0.806
S6B2,1.39e-02,-1.051,0.9899,7.76e-03,-0.959,0.9948,-1.051,-0.734,-0.959,-0.815
S7,NaN,-0.762,0.9979,NaN,NaN,NaN,-0.762,-0.646,NaN,NaN
S7B1,1.19e-02,-0.769,0.9995,7.22e-03,-0.823,0.9904,-0.769,-0.696,-0.823,-0.659
S7B2,1.56e-02,-0.857,0.9950,1.24e-02,-0.760,0.9978,-0.857,-0.660,-0.760,-0.669
S7B3,NaN,-0.703,0.9997,NaN,-0.647,0.9995,-0.703,-0.626,-0.647,-0.581
S8,NaN,-0.837,0.9997,1.15e-02,-0.895,0.9994,-0.837,-0.704,-0.895,-0.773
S9,NaN,-0.707,0.9989,NaN,-0.898,0.9987,-0.742,-0.707,-0.898,-0.693
S10,5.37e-02,-0.780,0.9981,2.69e-02,-0.858,0.9972,-0.780,-0.675,-0.858,-0.706
S11,1.83e-02,-0.937,0.9985,9.71e-03,-0.775,0.9985,-0.937,-0.757,-0.863,-0.775
S12,2.17e-02,-0.795,0.9991,1.29e-02,-0.841,0.9987,-0.795,-0.672,-0.841,-0.613
